{
    "/js/alpine.js": "/js/alpine.js",
    "/js/app.js": "/js/app.js",
    "/js/all.js": "/js/all.js",
    "/css/all.css": "/css/all.css",
    "/favicon.ico": "/favicon.ico",
    "/css/NunitoSans-Black.woff": "/css/NunitoSans-Black.woff",
    "/css/NunitoSans-BlackItalic.woff": "/css/NunitoSans-BlackItalic.woff",
    "/css/NunitoSans-Bold.woff": "/css/NunitoSans-Bold.woff",
    "/css/NunitoSans-BoldItalic.woff": "/css/NunitoSans-BoldItalic.woff",
    "/css/NunitoSans-ExtraBold.woff": "/css/NunitoSans-ExtraBold.woff",
    "/css/NunitoSans-ExtraBoldItalic.woff": "/css/NunitoSans-ExtraBoldItalic.woff",
    "/css/NunitoSans-ExtraLight.woff": "/css/NunitoSans-ExtraLight.woff",
    "/css/NunitoSans-ExtraLightItalic.woff": "/css/NunitoSans-ExtraLightItalic.woff",
    "/css/NunitoSans-Italic.woff": "/css/NunitoSans-Italic.woff",
    "/css/NunitoSans-Light.woff": "/css/NunitoSans-Light.woff",
    "/css/NunitoSans-LightItalic.woff": "/css/NunitoSans-LightItalic.woff",
    "/css/NunitoSans-Regular.woff": "/css/NunitoSans-Regular.woff",
    "/css/NunitoSans-SemiBold.woff": "/css/NunitoSans-SemiBold.woff",
    "/css/RobotoSlab-Bold-webfont.woff": "/css/RobotoSlab-Bold-webfont.woff"
}
